<?xml version="1.0" encoding="UTF-8" standalone="no"?>
<svg
   xmlns:dc="http://purl.org/dc/elements/1.1/"
   xmlns:cc="http://creativecommons.org/ns#"
   xmlns:rdf="http://www.w3.org/1999/02/22-rdf-syntax-ns#"
   xmlns:svg="http://www.w3.org/2000/svg"
   xmlns="http://www.w3.org/2000/svg"
   xmlns:sodipodi="http://sodipodi.sourceforge.net/DTD/sodipodi-0.dtd"
   xmlns:inkscape="http://www.inkscape.org/namespaces/inkscape"
   width="24"
   height="24"
   viewBox="0 0 6.3499998 6.3499998"
   version="1.1"
   id="svg8"
   inkscape:version="1.0 (4035a4f, 2020-05-01)"
   sodipodi:docname="hflogo.svg">
  <defs
     id="defs2" />
  <sodipodi:namedview
     id="base"
     pagecolor="#ffffff"
     bordercolor="#666666"
     borderopacity="1.0"
     inkscape:pageopacity="0.0"
     inkscape:pageshadow="2"
     inkscape:zoom="12.557349"
     inkscape:cx="4.9691685"
     inkscape:cy="14.862483"
     inkscape:document-units="mm"
     inkscape:current-layer="g24"
     inkscape:document-rotation="0"
     showgrid="false"
     units="px"
     inkscape:window-width="884"
     inkscape:window-height="874"
     inkscape:window-x="556"
     inkscape:window-y="26"
     inkscape:window-maximized="0" />
  <metadata
     id="metadata5">
    <rdf:RDF>
      <cc:Work
         rdf:about="">
        <dc:format>image/svg+xml</dc:format>
        <dc:type
           rdf:resource="http://purl.org/dc/dcmitype/StillImage" />
        <dc:title />
      </cc:Work>
    </rdf:RDF>
  </metadata>
  <g
     inkscape:label="Layer 1"
     inkscape:groupmode="layer"
     id="layer1">
    <g
       transform="matrix(0.29227425,0,0,0.29227425,-0.51842441,-0.83582316)"
       id="g24">
      <rect
         y="0"
         x="0"
         fill="none"
         height="24"
         width="24"
         id="rect10" />
      <path
         d="M 12.636845,2.9335576 1.8714104,12.622469 h 3.229671 v 8.612286 H 20.172609 v -8.612286 h 3.229671 z m 0.06383,6.0780314 c 1.071836,1.071835 1.643132,2.447101 1.734136,3.857678 -0.647145,0.348851 -1.243709,0.793753 -1.76446,1.329671 -0.52075,-0.540974 -1.117316,-0.985876 -1.764461,-1.329671 0.116284,-1.400465 0.712839,-2.775731 1.794785,-3.857678 z m -5.0861357,4.044747 c 1.3100371,0 2.5207547,0.42187 3.5109937,1.137376 0.0076,0.0051 0.01561,0.0099 0.02304,0.01527 -0.0061,-0.0043 -0.01297,-0.0083 -0.01916,-0.01249 0.605561,0.438277 1.128617,0.986193 1.540919,1.615193 1.087003,-1.658311 2.94247,-2.755337 5.055806,-2.755337 0,2.689701 -1.698735,4.964783 -4.059807,5.809106 -0.323573,0.111229 -0.652203,0.197191 -0.995999,0.257861 -0.343789,-0.05562 -0.677475,-0.14158 -0.995992,-0.257864 C 9.3132745,18.021118 7.6145393,15.746036 7.6145393,13.056336 Z m 3.5148867,1.140144 c -0.0013,-9.35e-4 -0.0026,-0.0019 -0.0039,-0.0028 -0.01429,-0.0096 -0.02869,-0.01918 -0.04354,-0.02837 0.01601,0.01018 0.03207,0.02059 0.04743,0.03114 z"
         style="fill:#ffffff;stroke-width:1.07654"
         id="path12" />
    </g>
  </g>
</svg>
